{
"targetName": "Александра",
		"age": 19,
		"hobby": "Люблю шумные вечеринки, играю на гитаре, интересуюсь машинами. Занудам не писать.",

"chatInfo":[
	{
		"title": "R0E0",
		"tags": "",
		"body": "[[Привет|R0E0G]]\n[[Здравствуй|R0E0B]]",
		"position": {
			"x": -860,
			"y": 491
		},
		"colorID": 1
	},
	{
		"title": "R0E0G",
		"tags": "",
		"body": "Здаров\n[[|R1E1]]",
		"position": {
			"x": 75,
			"y": -102
		},
		"colorID": 2
	},
	{
		"title": "R0E0B",
		"tags": "",
		"body": "Что важничаешь?\n[[|R2E1]]",
		"position": {
			"x": -44,
			"y": 1238
		},
		"colorID": 2
	},
	{
		"title": "R2E1",
		"tags": "",
		"body": "[[А что? Не нравится?|R2E1G]]\n[[Пытаюсь быть вежливым. А что?|R2E1B]]",
		"position": {
			"x": 261,
			"y": 1241
		},
		"colorID": 1
	},
	{
		"title": "R2E1B",
		"tags": "",
		"body": "Ничего.\n[[|D1F]]",
		"position": {
			"x": 803,
			"y": 1561
		},
		"colorID": 2
	},
	{
		"title": "R2E1G",
		"tags": "",
		"body": "Нет. Такое ощущение, что ты пытаешься посмеяться надо мной.\n[[|R21E2]]",
		"position": {
			"x": 806,
			"y": 1144
		},
		"colorID": 2
	},
	{
		"title": "R1E1",
		"tags": "",
		"body": "[[Классная у тебя фотка. Девушек, которые интересуются машинами, редко встретишь. Откуда такой интерес?|R1E1G]]\n[[Хорошая сегодня погода.|R1E1B]]",
		"position": {
			"x": 367,
			"y": -105
		},
		"colorID": 1
	},
	{
		"title": "R1E1G",
		"tags": "",
		"body": "От папы. Я с мала помогала ему чинить нашу железяку.\n[[|R11E2]]",
		"position": {
			"x": 811,
			"y": -526
		},
		"colorID": 2
	},
	{
		"title": "R11E2",
		"tags": "",
		"body": "[[А что это за железяка?|R11E2G]]\n[[Ну и что это за хлам?|R11E2B]]",
		"position": {
			"x": 1174,
			"y": -534
		},
		"colorID": 1
	},
	{
		"title": "R11E2G",
		"tags": "",
		"body": "Форд Ц23 1976 года.\n[[|R111E3]]",
		"position": {
			"x": 1807,
			"y": -979
		},
		"colorID": 2
	},
	{
		"title": "R111E3",
		"tags": "",
		"body": "[[Четырёхцилиндровый мотор, максимальная скорость 256 км в час, ...|R111E3G]]\n[[Если честно я сам машинами недавно начал интересовать. Расскажешь немного?|R111E3B]]",
		"position": {
			"x": 2158,
			"y": -973
		},
		"colorID": 1
	},
	{
		"title": "R111E3G",
		"tags": "",
		"body": "Ты это всё нагуглил?\n[[|R1111E4]]",
		"position": {
			"x": 2610,
			"y": -1151
		},
		"colorID": 2
	},
	{
		"title": "R1111E4",
		"tags": "",
		"body": "[[Да.|R1111E4G]]\n[[Нет.|R1111E4B]]",
		"position": {
			"x": 2938,
			"y": -1150
		},
		"colorID": 1
	},
	{
		"title": "R1111E4G",
		"tags": "",
		"body": "Ну хотя бы честно. А ты сам то машинами интересуешься?\n[[|R11111E5]]",
		"position": {
			"x": 3259,
			"y": -1295
		},
		"colorID": 2
	},
	{
		"title": "R1111E4B",
		"tags": "",
		"body": "Ну врунишка. Максимальная скорость не 256 км/ч а 180. То что ты нагуглил, это гоночный вариант. Мог бы и поубедительнее соврать.\n[[|R11112E5]]",
		"position": {
			"x": 3256,
			"y": -1002
		},
		"colorID": 2
	},
	{
		"title": "R11112E5",
		"tags": "",
		"body": "[[Прости. Хотел повыделываться.|R1111E4G]]\n[[Да кому интересны эти железяки старые?|R11112E5B]]",
		"position": {
			"x": 3643,
			"y": -623
		},
		"colorID": 1
	},
	{
		"title": "R11111E5",
		"tags": "",
		"body": "[[Да. Чисто как хобби. А что тебе интересует в винтажных машинах?|R11111E5G]]\n[[Честно говоря нет. Я больше интересуюсь мотоциклами. А что тебе интересует в винтажных машинах? |R11111E5G]]",
		"position": {
			"x": 3641,
			"y": -919
		},
		"colorID": 1
	},
	{
		"title": "R11111E5G",
		"tags": "",
		"body": "Ну...Винтажные машины живые свидетели другой эпохи и несут в себе частичку этого самого времени. А ещё отец повлиял.\n[[|R11111E6]]",
		"position": {
			"x": 3983,
			"y": -922
		},
		"colorID": 2
	},
	{
		"title": "R11111E6",
		"tags": "",
		"body": "[[А тебе нравятся мужчины за рулём, как они переключают передачу...|R11111E6G]]\n[[А чем он занимался, что делал?|R11111E6B]]",
		"position": {
			"x": 4366,
			"y": -921
		},
		"colorID": 1
	},
	{
		"title": "R11111E6B",
		"tags": "",
		"body": "Честно говоря мне не хочется говорить на эту тему.\n[[|R11111E7]]",
		"position": {
			"x": 4754,
			"y": -760
		},
		"colorID": 2
	},
	{
		"title": "R11111E7",
		"tags": "",
		"body": "[[Раз уж ты интересуешься машинами, может сходим на выставку ретро-машин? Насколько я знаю там будут участвовать множество винтажных автомобилей.|R11111E7G]]\n[[У меня нет ретрокара, но у меня есть мотоцикл, может прокатимся по городу?|R11111E7B]]",
		"position": {
			"x": 5044,
			"y": -898
		},
		"colorID": 1
	},
	{
		"title": "R11111E7G",
		"tags": "",
		"body": "Почему и нет. Было бы приятно посмотреть на выставку в твоей компании. До встречи.\n[[|D1S]]",
		"position": {
			"x": 5302,
			"y": -1051
		},
		"colorID": 2
	},
	{
		"title": "R21E2",
		"tags": "",
		"body": "[[С чего бы мне смеяться над девушкой с машиной на аватарке. Как зовут этого красавца?|R11E2G]]\n[[Да я не смеюсь. Надо же быть вежливым. Я это в статье по пикапу читал.|R21E2B]]",
		"position": {
			"x": 1170,
			"y": 1139
		},
		"colorID": 1
	},
	{
		"title": "D1S",
		"tags": "",
		"body": "Вы были добавлены в список друзей.",
		"position": {
			"x": 6922,
			"y": -954
		},
		"colorID": 3
	},
	{
		"title": "D1F",
		"tags": "",
		"body": "Вы были добавлены в чёрный список.",
		"position": {
			"x": 6876,
			"y": 1539
		},
		"colorID": 3
	},
	{
		"title": "R1E1B",
		"tags": "",
		"body": "Ничего удачнее не придумал для первого сообщения?\n[[|R12E2]]",
		"position": {
			"x": 797,
			"y": 98
		},
		"colorID": 2
	},
	{
		"title": "R12E2",
		"tags": "",
		"body": "[[Просто сегодня реально хорошая погода и я решил написать красивой девушке.|R12E2G]]\n[[Да нет.|R12E2B]]",
		"position": {
			"x": 1176,
			"y": 92
		},
		"colorID": 1
	},
	{
		"title": "R12E3B",
		"tags": "",
		"body": "...\n[[|D1F]]",
		"position": {
			"x": 2638,
			"y": -54
		},
		"colorID": 2
	},
	{
		"title": "R12E2G",
		"tags": "",
		"body": "Издеваешься?\n[[|R12E3]]",
		"position": {
			"x": 1803,
			"y": -305
		},
		"colorID": 2
	},
	{
		"title": "R12E2B",
		"tags": "",
		"body": "С тобой скучно будет общаться. Всего плохого.\n[[|D1F]]",
		"position": {
			"x": 1790,
			"y": -44
		},
		"colorID": 2
	},
	{
		"title": "R12E3",
		"tags": "",
		"body": "[[Что правда, то правда. Чем же занимается такая красотка как ты?|R12E3G]]\n[[Ты самая красивая девушка, которую я видел.|R12E3B]]",
		"position": {
			"x": 2171,
			"y": -298
		},
		"colorID": 1
	},
	{
		"title": "R11E2B",
		"tags": "",
		"body": "В смысле хлам? Это ярчайший представитель ретрокаров 70х!\n[[|R112E3]]",
		"position": {
			"x": 1808,
			"y": -598
		},
		"colorID": 2
	},
	{
		"title": "R112E3B",
		"tags": "",
		"body": "Нам не о чем разговаривать.\n[[|D1F]]",
		"position": {
			"x": 2618,
			"y": -591
		},
		"colorID": 2
	},
	{
		"title": "R112E3",
		"tags": "",
		"body": "[[Ой прости. Расскажи мне об этом чуде.|R12E3B]]\n[[Какая ретромашина? Это просто старый, вонючий кусок ржавого металла!|R112E3B]]",
		"position": {
			"x": 2166,
			"y": -580
		},
		"colorID": 1
	},
	{
		"title": "R11111E6G",
		"tags": "",
		"body": "Да. Мне нравятся такие мужчины ;).\n[[|R11111E7]]",
		"position": {
			"x": 4735,
			"y": -1073
		},
		"colorID": 2
	},
	{
		"title": "R11111E7B",
		"tags": "",
		"body": "Ммм.. Никогда не каталась на мотоциклах.\n[[|R11111E8]]",
		"position": {
			"x": 5311,
			"y": -738
		},
		"colorID": 2
	},
	{
		"title": "R11111E8",
		"tags": "",
		"body": "[[Всё когда-нибудь случается впервые).|R11111E8G]]\n[[Можем покататься на твоём коне.|R11111E8B]]",
		"position": {
			"x": 5611,
			"y": -878
		},
		"colorID": 1
	},
	{
		"title": "R11111E8G",
		"tags": "",
		"body": "Хорошо. Встретимся вечерком.\n[[|D1S]]",
		"position": {
			"x": 5896,
			"y": -960
		},
		"colorID": 2
	},
	{
		"title": "R11111E8B",
		"tags": "",
		"body": "Ок. Только за руль я тебя не пущу.\n[[|D1S]]",
		"position": {
			"x": 5897,
			"y": -722
		},
		"colorID": 2
	},
	{
		"title": "R111E3B",
		"tags": "",
		"body": "Это форд мустанг 1976 года... А ты сам то машинами интересуешься.\n[[|R11111E5]]",
		"position": {
			"x": 2615,
			"y": -825
		},
		"colorID": 2
	},
	{
		"title": "R12E3G",
		"tags": "",
		"body": "Винтажными машинами, футболом, комиксами и прочим. А больше всего, как ты мог увидеть по моей аватарке, мне нравятся ретрокары. Ты сам интересуешься ими?\n[[|R11111E5]]",
		"position": {
			"x": 2624,
			"y": -373
		},
		"colorID": 2
	},
	{
		"title": "R11112E5B",
		"tags": "",
		"body": "Как минимум мне.\n[[|R11112E6]]",
		"position": {
			"x": 3984,
			"y": -624
		},
		"colorID": 2
	},
	{
		"title": "R11112E6",
		"tags": "",
		"body": "[[Зачем они нужны, когда есть более современные и лучшие машины? Кто привил тебе к ним такой сильный интерес?|R11111E5G]]\n[[Люди, интересующиеся старьём, отстают от жизни, от нового.|R11112E6B]]",
		"position": {
			"x": 4362,
			"y": -620
		},
		"colorID": 1
	},
	{
		"title": "R11112E6B",
		"tags": "",
		"body": "А зачем тогда общаться с отставшей)?\n[[|D1F]]",
		"position": {
			"x": 4750,
			"y": -373
		},
		"colorID": 2
	},
	{
		"title": "R21E2B",
		"tags": "",
		"body": "Да? А что ты ещё читал?\n[[|R21E4]]",
		"position": {
			"x": 1842,
			"y": 1151
		},
		"colorID": 2
	},
	{
		"title": "R21E4",
		"tags": "",
		"body": "[[Там говорят, что самые горячие цыпы катаются на ретрокарах.|R21E4G]]\n[[Твой отец не пекарь? Откуда у него такая булочка?|R21E4B]]",
		"position": {
			"x": 2241,
			"y": 1157
		},
		"colorID": 1
	},
	{
		"title": "R21E4B",
		"tags": "",
		"body": "Моя корочка тебе зубы сломает.\n[[|D1F]]",
		"position": {
			"x": 2615,
			"y": 1325
		},
		"colorID": 2
	},
	{
		"title": "R21E4G",
		"tags": "",
		"body": "Это да. Ну и почему ты решил мне написать? Что-то по делу или просто?\n[[|R11E2]]",
		"position": {
			"x": 2615,
			"y": 1069
		},
		"colorID": 2
	}
]
}